module gitlab.com/serkurnikov/uni-exchange

go 1.20

require (
	github.com/dgraph-io/ristretto v0.1.1
	github.com/ethereum/go-ethereum v1.13.5
)

require (
	github.com/Microsoft/go-winio v0.6.1 // indirect
	github.com/StackExchange/wmi v1.2.1 // indirect
	github.com/bits-and-blooms/bitset v1.7.0 // indirect
	github.com/btcsuite/btcd/btcec/v2 v2.2.0 // indirect
	github.com/cespare/xxhash/v2 v2.2.0 // indirect
	github.com/consensys/bavard v0.1.13 // indirect
	github.com/consensys/gnark-crypto v0.12.1 // indirect
	github.com/crate-crypto/go-kzg-4844 v0.7.0 // indirect
	github.com/deckarep/golang-set/v2 v2.1.0 // indirect
	github.com/decred/dcrd/dcrec/secp256k1/v4 v4.0.1 // indirect
	github.com/dustin/go-humanize v1.0.0 // indirect
	github.com/ethereum/c-kzg-4844 v0.4.0 // indirect
	github.com/fsnotify/fsnotify v1.6.0 // indirect
	github.com/go-ole/go-ole v1.2.5 // indirect
	github.com/go-stack/stack v1.8.1 // indirect
	github.com/golang/glog v0.0.0-20160126235308-23def4e6c14b // indirect
	github.com/google/uuid v1.3.0 // indirect
	github.com/gorilla/websocket v1.4.2 // indirect
	github.com/holiman/uint256 v1.2.3 // indirect
	github.com/mmcloughlin/addchain v0.4.0 // indirect
	github.com/pkg/errors v0.9.1 // indirect
	github.com/shirou/gopsutil v3.21.4-0.20210419000835-c7a38de76ee5+incompatible // indirect
	github.com/supranational/blst v0.3.11 // indirect
	github.com/tklauser/go-sysconf v0.3.12 // indirect
	github.com/tklauser/numcpus v0.6.1 // indirect
	golang.org/x/crypto v0.14.0 // indirect
	golang.org/x/exp v0.0.0-20230905200255-921286631fa9 // indirect
	golang.org/x/mod v0.12.0 // indirect
	golang.org/x/sync v0.3.0 // indirect
	golang.org/x/sys v0.13.0 // indirect
	golang.org/x/tools v0.13.0 // indirect
	rsc.io/tmplfunc v0.0.3 // indirect
)
